%YAML 1.1
%TAG !u! tag:unity3d.com,2011:
--- !u!114 &11400000
MonoBehaviour:
  m_ObjectHideFlags: 0
  m_PrefabParentObject: {fileID: 0}
  m_PrefabInternal: {fileID: 0}
  m_GameObject: {fileID: 0}
  m_Enabled: 1
  m_EditorHideFlags: 0
  m_Script: {fileID: 11500000, guid: 0b3cbc2201310ec469deb37d4c09ccda, type: 3}
  m_Name: wave_hard_random_25s_2
  m_EditorClassIdentifier: 
  waveTime: 25
  randomSpawnPoint: 1
  spawnPoint: 3
  waveItems:
  - {fileID: 11400000, guid: ceeda5f7507eb1640a0729d4f75e74c0, type: 2}
  - {fileID: 11400000, guid: 6b225cbb345d0354fadf4f49b65f58dc, type: 2}
  healthMultiplier: 1.2
  attackMultiplier: 1.2
  scoreMultiplier: 5
