%YAML 1.1
%TAG !u! tag:unity3d.com,2011:
--- !u!221 &22100000
AnimatorOverrideController:
  m_ObjectHideFlags: 0
  m_PrefabParentObject: {fileID: 0}
  m_PrefabInternal: {fileID: 0}
  m_Name: animator_coreCrystal
  m_Controller: {fileID: 9100000, guid: 4966ad5b5dcfcbf4cb411cba82b5bc17, type: 2}
  m_Clips:
  - m_OriginalClip: {fileID: 7400000, guid: acbb50d405b05e849be32c07ff593ce6, type: 2}
    m_OverrideClip: {fileID: 7400000, guid: 68b89217183811d46b1bbfc97934f1ed, type: 2}
  - m_OriginalClip: {fileID: 7400000, guid: f1013e1b86ab84c4eb5076e70d18af16, type: 2}
    m_OverrideClip: {fileID: 7400000, guid: 8258a98a76f64db4f8144a5048dc684a, type: 2}
