%YAML 1.1
%TAG !u! tag:unity3d.com,2011:
--- !u!114 &11400000
MonoBehaviour:
  m_ObjectHideFlags: 0
  m_PrefabParentObject: {fileID: 0}
  m_PrefabInternal: {fileID: 0}
  m_GameObject: {fileID: 0}
  m_Enabled: 1
  m_EditorHideFlags: 0
  m_Script: {fileID: 11500000, guid: 56b4c79681c6908488f92f75dcc94564, type: 3}
  m_Name: waveItem_hard_enemyB
  m_EditorClassIdentifier: 
  enemyPrefab: {fileID: 1705058820086950, guid: 36eae868404d9ef48a478970e0f2600e,
    type: 2}
  enemyAmount: 6
