%YAML 1.1
%TAG !u! tag:unity3d.com,2011:
--- !u!114 &11400000
MonoBehaviour:
  m_ObjectHideFlags: 0
  m_PrefabParentObject: {fileID: 0}
  m_PrefabInternal: {fileID: 0}
  m_GameObject: {fileID: 0}
  m_Enabled: 1
  m_EditorHideFlags: 0
  m_Script: {fileID: 11500000, guid: 56b4c79681c6908488f92f75dcc94564, type: 3}
  m_Name: waveItem_easy_enemyA_Tower
  m_EditorClassIdentifier: 
  enemyPrefab: {fileID: 1812318931379120, guid: ed6dc451f66a2be4a8e59afd36e5d18a,
    type: 2}
  enemyAmount: 6
